Killian Cimino - M5 Time Series Prediction
…
There are 3039 items, 7 depts, 3 cats, 10 stores, and 3 states

Code
init_cats %>% 
  group_by(dept_id, cat_id,store_id,state_id) %>% 
  summarize(number_of_items=n())

`summarise()` has grouped output by 'dept_id', 'cat_id', 'store_id'. You can
override using the `.groups` argument.

# A tibble: 70 × 5
# Groups:   dept_id, cat_id, store_id [70]
   dept_id cat_id store_id state_id number_of_items
   <chr>   <chr>  <chr>    <chr>              <int>
 1 FOODS_1 FOODS  CA_1     CA                   216
 2 FOODS_1 FOODS  CA_2     CA                   216
 3 FOODS_1 FOODS  CA_3     CA                   216
 4 FOODS_1 FOODS  CA_4     CA                   216
 5 FOODS_1 FOODS  TX_1     TX                   216
 6 FOODS_1 FOODS  TX_2     TX                   216
 7 FOODS_1 FOODS  TX_3     TX                   216
 8 FOODS_1 FOODS  WI_1     WI                   216
 9 FOODS_1 FOODS  WI_2     WI                   216
10 FOODS_1 FOODS  WI_3     WI                   216
# ℹ 60 more rows
…
baseline_fc

# A tibble: 836,571 × 7
# Groups:   sku [431]
   ds         sku   forecast .model        scenario  week  year
   <date>     <chr>    <dbl> <chr>         <chr>    <dbl> <dbl>
 1 2011-01-29 total     365. mean_per_node original     5  2011
 2 2011-01-30 total     365. mean_per_node original     5  2011
 3 2011-01-31 total     365. mean_per_node original     5  2011
 4 2011-02-01 total     365. mean_per_node original     5  2011
 5 2011-02-02 total     365. mean_per_node original     5  2011
 6 2011-02-03 total     365. mean_per_node original     5  2011
 7 2011-02-04 total     365. mean_per_node original     5  2011
 8 2011-02-05 total     365. mean_per_node original     6  2011
 9 2011-02-06 total     365. mean_per_node original     6  2011
10 2011-02-07 total     365. mean_per_node original     6  2011
# ℹ 836,561 more rows
…
Code
graphing_fcoi %>% 
  ungroup() %>% 
  filter(!!sym(toplevelname)==toplevelofinterest,
         .model=="actuals"
         # !!sym(bottomlevelname)==bottomlevelofinterest
         ) %>% 
  #mutate(ds=yearweek(str_c(year," Wk",week))) %>% 
    group_by(!!sym(toplevelname), ds, .model) %>% 
    summarize(sold=sum(sold))

`summarise()` has grouped output by 'cat_id', 'ds'. You can override using the
`.groups` argument.

# A tibble: 278 × 4
# Groups:   cat_id, ds [278]
   cat_id ds         .model   sold
   <chr>  <date>     <chr>   <dbl>
 1 FOODS  2011-01-24 actuals   284
 2 FOODS  2011-01-31 actuals   866
 3 FOODS  2011-02-07 actuals  1209
 4 FOODS  2011-02-14 actuals  1048
 5 FOODS  2011-02-21 actuals  1031
 6 FOODS  2011-02-28 actuals  1261
 7 FOODS  2011-03-07 actuals  1282
 8 FOODS  2011-03-14 actuals  1325
 9 FOODS  2011-03-21 actuals  1018
10 FOODS  2011-03-28 actuals  1058
# ℹ 268 more rows
…
[[4]]$plotb

[[5]] [[5]]$plota

[[5]]$plotb

::: ::::

Error graph

Code
ststdf

# A tibble: 19,292 × 7
   sku   scenario ds         forecast .model     week  year
   <chr> <chr>    <chr>         <dbl> <chr>     <dbl> <dbl>
 1 total original 2016-05-23      437 STL_121_7    21  2016
 2 total original 2016-05-24      407 STL_121_7    21  2016
 3 total original 2016-05-25      438 STL_121_7    21  2016
 4 total original 2016-05-26      373 STL_121_7    21  2016
 5 total original 2016-05-27      442 STL_121_7    22  2016
 6 total original 2016-05-28      487 STL_121_7    22  2016
 7 total original 2016-05-29      518 STL_121_7    22  2016
 8 total original 2016-05-30      492 STL_121_7    22  2016
 9 total original 2016-05-31      489 STL_121_7    22  2016
10 total original 2016-06-01      475 STL_121_7    22  2016
# ℹ 19,282 more rows
…
